digraph "noeud_addition.h"
{
  edge [fontname="Helvetica",fontsize="10",labelfontname="Helvetica",labelfontsize="10"];
  node [fontname="Helvetica",fontsize="10",shape=record];
  Node1 [label="noeud_addition.h",height=0.2,width=0.4,color="black", fillcolor="grey75", style="filled", fontcolor="black"];
  Node1 -> Node2 [dir="back",color="midnightblue",fontsize="10",style="solid"];
  Node2 [label="noeud_addition.c",height=0.2,width=0.4,color="black", fillcolor="white", style="filled",URL="$noeud__addition_8c.html",tooltip="contient le prog du noeud ipv4 de calcul addition "];
}
