digraph "noeud_ipv6.c"
{
  edge [fontname="Helvetica",fontsize="10",labelfontname="Helvetica",labelfontsize="10"];
  node [fontname="Helvetica",fontsize="10",shape=record];
  Node1 [label="noeud_ipv6.c",height=0.2,width=0.4,color="black", fillcolor="grey75", style="filled", fontcolor="black"];
  Node1 -> Node2 [color="midnightblue",fontsize="10",style="solid"];
  Node2 [label="noeud_ipv6.h",height=0.2,width=0.4,color="black", fillcolor="white", style="filled",URL="$noeud__ipv6_8h.html"];
  Node2 -> Node3 [color="midnightblue",fontsize="10",style="solid"];
  Node3 [label="stdio.h",height=0.2,width=0.4,color="grey75", fillcolor="white", style="filled"];
  Node2 -> Node4 [color="midnightblue",fontsize="10",style="solid"];
  Node4 [label="sys/types.h",height=0.2,width=0.4,color="grey75", fillcolor="white", style="filled"];
  Node2 -> Node5 [color="midnightblue",fontsize="10",style="solid"];
  Node5 [label="sys/socket.h",height=0.2,width=0.4,color="grey75", fillcolor="white", style="filled"];
  Node2 -> Node6 [color="midnightblue",fontsize="10",style="solid"];
  Node6 [label="netinet/in.h",height=0.2,width=0.4,color="grey75", fillcolor="white", style="filled"];
  Node2 -> Node7 [color="midnightblue",fontsize="10",style="solid"];
  Node7 [label="stdlib.h",height=0.2,width=0.4,color="grey75", fillcolor="white", style="filled"];
  Node2 -> Node8 [color="midnightblue",fontsize="10",style="solid"];
  Node8 [label="string.h",height=0.2,width=0.4,color="grey75", fillcolor="white", style="filled"];
  Node2 -> Node9 [color="midnightblue",fontsize="10",style="solid"];
  Node9 [label="arpa/inet.h",height=0.2,width=0.4,color="grey75", fillcolor="white", style="filled"];
  Node2 -> Node10 [color="midnightblue",fontsize="10",style="solid"];
  Node10 [label="unistd.h",height=0.2,width=0.4,color="grey75", fillcolor="white", style="filled"];
  Node2 -> Node11 [color="midnightblue",fontsize="10",style="solid"];
  Node11 [label="errno.h",height=0.2,width=0.4,color="grey75", fillcolor="white", style="filled"];
  Node2 -> Node12 [color="midnightblue",fontsize="10",style="solid"];
  Node12 [label="pthread.h",height=0.2,width=0.4,color="grey75", fillcolor="white", style="filled"];
  Node2 -> Node13 [color="midnightblue",fontsize="10",style="solid"];
  Node13 [label="udp_message.h",height=0.2,width=0.4,color="black", fillcolor="white", style="filled",URL="$udp__message_8h.html"];
  Node13 -> Node14 [color="midnightblue",fontsize="10",style="solid"];
  Node14 [label="stdint.h",height=0.2,width=0.4,color="grey75", fillcolor="white", style="filled"];
  Node13 -> Node3 [color="midnightblue",fontsize="10",style="solid"];
  Node13 -> Node7 [color="midnightblue",fontsize="10",style="solid"];
  Node13 -> Node8 [color="midnightblue",fontsize="10",style="solid"];
  Node13 -> Node15 [color="midnightblue",fontsize="10",style="solid"];
  Node15 [label="utils.h",height=0.2,width=0.4,color="black", fillcolor="white", style="filled",URL="$utils_8h.html"];
  Node15 -> Node3 [color="midnightblue",fontsize="10",style="solid"];
  Node15 -> Node11 [color="midnightblue",fontsize="10",style="solid"];
  Node15 -> Node8 [color="midnightblue",fontsize="10",style="solid"];
  Node15 -> Node16 [color="midnightblue",fontsize="10",style="solid"];
  Node16 [label="time.h",height=0.2,width=0.4,color="grey75", fillcolor="white", style="filled"];
  Node15 -> Node7 [color="midnightblue",fontsize="10",style="solid"];
  Node15 -> Node17 [color="midnightblue",fontsize="10",style="solid"];
  Node17 [label="stdarg.h",height=0.2,width=0.4,color="grey75", fillcolor="white", style="filled"];
}
