digraph "udp_message.c"
{
  edge [fontname="Helvetica",fontsize="10",labelfontname="Helvetica",labelfontsize="10"];
  node [fontname="Helvetica",fontsize="10",shape=record];
  Node1 [label="udp_message.c",height=0.2,width=0.4,color="black", fillcolor="grey75", style="filled", fontcolor="black"];
  Node1 -> Node2 [color="midnightblue",fontsize="10",style="solid"];
  Node2 [label="udp_message.h",height=0.2,width=0.4,color="black", fillcolor="white", style="filled",URL="$udp__message_8h.html"];
  Node2 -> Node3 [color="midnightblue",fontsize="10",style="solid"];
  Node3 [label="stdint.h",height=0.2,width=0.4,color="grey75", fillcolor="white", style="filled"];
  Node2 -> Node4 [color="midnightblue",fontsize="10",style="solid"];
  Node4 [label="stdio.h",height=0.2,width=0.4,color="grey75", fillcolor="white", style="filled"];
  Node2 -> Node5 [color="midnightblue",fontsize="10",style="solid"];
  Node5 [label="stdlib.h",height=0.2,width=0.4,color="grey75", fillcolor="white", style="filled"];
  Node2 -> Node6 [color="midnightblue",fontsize="10",style="solid"];
  Node6 [label="string.h",height=0.2,width=0.4,color="grey75", fillcolor="white", style="filled"];
  Node2 -> Node7 [color="midnightblue",fontsize="10",style="solid"];
  Node7 [label="utils.h",height=0.2,width=0.4,color="black", fillcolor="white", style="filled",URL="$utils_8h.html"];
  Node7 -> Node4 [color="midnightblue",fontsize="10",style="solid"];
  Node7 -> Node8 [color="midnightblue",fontsize="10",style="solid"];
  Node8 [label="errno.h",height=0.2,width=0.4,color="grey75", fillcolor="white", style="filled"];
  Node7 -> Node6 [color="midnightblue",fontsize="10",style="solid"];
  Node7 -> Node9 [color="midnightblue",fontsize="10",style="solid"];
  Node9 [label="time.h",height=0.2,width=0.4,color="grey75", fillcolor="white", style="filled"];
  Node7 -> Node5 [color="midnightblue",fontsize="10",style="solid"];
  Node7 -> Node10 [color="midnightblue",fontsize="10",style="solid"];
  Node10 [label="stdarg.h",height=0.2,width=0.4,color="grey75", fillcolor="white", style="filled"];
}
