digraph "noeud_ipv6.h"
{
  edge [fontname="Helvetica",fontsize="10",labelfontname="Helvetica",labelfontsize="10"];
  node [fontname="Helvetica",fontsize="10",shape=record];
  Node1 [label="noeud_ipv6.h",height=0.2,width=0.4,color="black", fillcolor="grey75", style="filled", fontcolor="black"];
  Node1 -> Node2 [dir="back",color="midnightblue",fontsize="10",style="solid",fontname="Helvetica"];
  Node2 [label="noeud_division.h",height=0.2,width=0.4,color="black", fillcolor="white", style="filled",URL="$noeud__division_8h.html"];
  Node2 -> Node3 [dir="back",color="midnightblue",fontsize="10",style="solid",fontname="Helvetica"];
  Node3 [label="noeud_division.c",height=0.2,width=0.4,color="black", fillcolor="white", style="filled",URL="$noeud__division_8c.html",tooltip="contient le prog du noeud ipv6 de calcul soustraction "];
  Node1 -> Node4 [dir="back",color="midnightblue",fontsize="10",style="solid",fontname="Helvetica"];
  Node4 [label="noeud_ipv6.c",height=0.2,width=0.4,color="black", fillcolor="white", style="filled",URL="$noeud__ipv6_8c.html",tooltip="contient le prog du noeud de calcul addition "];
  Node1 -> Node5 [dir="back",color="midnightblue",fontsize="10",style="solid",fontname="Helvetica"];
  Node5 [label="noeud_soustraction.h",height=0.2,width=0.4,color="black", fillcolor="white", style="filled",URL="$noeud__soustraction_8h.html"];
  Node5 -> Node6 [dir="back",color="midnightblue",fontsize="10",style="solid",fontname="Helvetica"];
  Node6 [label="noeud_soustraction.c",height=0.2,width=0.4,color="black", fillcolor="white", style="filled",URL="$noeud__soustraction_8c.html",tooltip="contient le prog du noeud ipv6 de calcul soustraction "];
}
