digraph "u_param_thread_requete_calcul_ipv6"
{
  edge [fontname="Helvetica",fontsize="10",labelfontname="Helvetica",labelfontsize="10"];
  node [fontname="Helvetica",fontsize="10",shape=record];
  Node1 [label="u_param_thread_requete\l_calcul_ipv6",height=0.2,width=0.4,color="black", fillcolor="grey75", style="filled", fontcolor="black"];
  Node2 -> Node1 [dir="back",color="darkorchid3",fontsize="10",style="dashed",label=" noeud_ipv6" ,fontname="Helvetica"];
  Node2 [label="u_info_noeud_ipv6",height=0.2,width=0.4,color="black", fillcolor="white", style="filled",URL="$structu__info__noeud__ipv6.html",tooltip="Structure décrivant un noeud de calcul ipv6. "];
}
